Bagmati Boarding Log
==========================================================================
12/12/2017 changes	:  after login dashboard UI changed
12/12/2017 changes	:  after login card view font changed to Segoe UI Semibold
12/12/2017 changs	:  app icon changed

VERSION: 1.5.2 [2017-12-13] released
        
VERSION CODE: 3

#Fixed


#Added
12/13/2017 changes	:  video gallery added

#Changed
12/12/2017 changes	:  after login dashboard UI changed
12/12/2017 changes	:  after login card view font changed to Segoe UI Semibold
12/12/2017 changs	:  app icon changed

#Deprecated

#Removed

#Fixed

#Security
